^C:\MANHQUYET\PROJECT\LIBETY\POS1\SETPASSWORD\FRMSETPASSWORD.RESX|C:\MANHQUYET\PROJECT\LIBETY\POS1\SETPASSWORD\PROPERTIES\RESOURCES.RESX
C:\MANHQUYET\PROJECT\LIBETY\POS1\SETPASSWORD\OBJ\DEBUG\SETPASSWORD.FRMSETPASSWORD.RESOURCES
C:\MANHQUYET\PROJECT\LIBETY\POS1\SETPASSWORD\OBJ\DEBUG\SETPASSWORD.PROPERTIES.RESOURCES.RESOURCES
